https://audio.guim.co.uk/2016/01/07-82770-BehindTheLines_Preview.mp3
saved as ./pods4k/behind_lines_0.mp3
https://audio.guim.co.uk/2016/04/04-43093-BTL_WhyKnot.mp3
saved as ./pods4k/behind_lines_1.mp3
https://audio.guim.co.uk/2016/03/28-03467-Vic_Domestic_Violence.mp3
saved as ./pods4k/behind_lines_2.mp3
https://audio.guim.co.uk/2016/05/16-11269-BTL_Election_Feminism.mp3
saved as ./pods4k/behind_lines_3.mp3
https://audio.guim.co.uk/2016/03/03-73878-BTL4_Pell1.mp3
saved as ./pods4k/behind_lines_4.mp3
https://audio.guim.co.uk/2016/09/06-33935-BTL_FODI2016.mp3
saved as ./pods4k/behind_lines_5.mp3
https://audio.guim.co.uk/2016/08/09-08576-BTL_DrMunjedAlMuderis.mp3
saved as ./pods4k/behind_lines_6.mp3
https://audio.guim.co.uk/2016/07/02-61233-BTL_ElectionNight.mp3
saved as ./pods4k/behind_lines_7.mp3
https://audio.guim.co.uk/2016/05/30-12857-BTL_debate2.mp3
saved as ./pods4k/behind_lines_8.mp3
https://audio.guim.co.uk/2016/05/24-11064-BTL_Marr_Equality.mp3
saved as ./pods4k/behind_lines_9.mp3
https://audio.guim.co.uk/2016/05/02-07680-BTL_InsideBudgetLockup.mp3
saved as ./pods4k/behind_lines_10.mp3
https://audio.guim.co.uk/2016/06/30-19216-BTL_Indi.mp3
saved as ./pods4k/behind_lines_11.mp3
https://audio.guim.co.uk/2016/05/09-12768-BTL_Election_0509.mp3
saved as ./pods4k/behind_lines_12.mp3
https://audio.guim.co.uk/2016/05/31-15226-BTL_WhereisGeorgeBrandis.mp3
saved as ./pods4k/behind_lines_13.mp3
https://audio.guim.co.uk/2016/05/17-16944-BTL_Marr_Election1.mp3
saved as ./pods4k/behind_lines_14.mp3
https://audio.guim.co.uk/2016/02/11-77756-BTL2a.mp3
saved as ./pods4k/behind_lines_15.mp3
https://audio.guim.co.uk/2016/04/19-13794-BTL_AFPMetadata.mp3
saved as ./pods4k/behind_lines_16.mp3
https://audio.guim.co.uk/2016/06/27-13202-BTL_FinalWeek.mp3
saved as ./pods4k/behind_lines_17.mp3
https://audio.guim.co.uk/2016/05/23-18636-BTL_Leaks.mp3
saved as ./pods4k/behind_lines_18.mp3
https://audio.guim.co.uk/2016/03/24-83986-Tiwi_islands.mp3
saved as ./pods4k/behind_lines_19.mp3
