http://omnystudio.com/d/clips/1127a421-54fd-4b47-91d5-a4f7004b4b52/e5b1c414-da02-4ff1-b8e1-a4f7004bbe3a/dc587de8-4146-45ef-a18b-a4f70064a5b1/audio.mp3?utm_source=Podcast&in_playlist=10ff939a-bbfe-4384-bfd9-a4f7004bcf80
saved as pods/tofop_0.mp3
http://omnystudio.com/d/clips/1127a421-54fd-4b47-91d5-a4f7004b4b52/e5b1c414-da02-4ff1-b8e1-a4f7004bbe3a/00447d55-99a2-4d23-8a7e-a4f7005bb8f6/audio.mp3?utm_source=Podcast&in_playlist=10ff939a-bbfe-4384-bfd9-a4f7004bcf80
saved as pods/tofop_1.mp3
http://omnystudio.com/d/clips/1127a421-54fd-4b47-91d5-a4f7004b4b52/e5b1c414-da02-4ff1-b8e1-a4f7004bbe3a/db01701d-d37c-431d-9413-a4f70064fcf6/audio.mp3?utm_source=Podcast&in_playlist=10ff939a-bbfe-4384-bfd9-a4f7004bcf80
saved as pods/tofop_2.mp3
http://omnystudio.com/d/clips/1127a421-54fd-4b47-91d5-a4f7004b4b52/e5b1c414-da02-4ff1-b8e1-a4f7004bbe3a/278bce2b-355c-4ea4-8fa7-a50f016a0e6e/audio.mp3?utm_source=Podcast&in_playlist=10ff939a-bbfe-4384-bfd9-a4f7004bcf80
saved as pods/tofop_3.mp3
http://omnystudio.com/d/clips/1127a421-54fd-4b47-91d5-a4f7004b4b52/e5b1c414-da02-4ff1-b8e1-a4f7004bbe3a/75c89a38-fcf0-452b-a190-a4f70065f776/audio.mp3?utm_source=Podcast&in_playlist=10ff939a-bbfe-4384-bfd9-a4f7004bcf80
saved as pods/tofop_4.mp3
http://omnystudio.com/d/clips/1127a421-54fd-4b47-91d5-a4f7004b4b52/e5b1c414-da02-4ff1-b8e1-a4f7004bbe3a/d5f1fbeb-98b1-44e6-97e9-a4f70063a3e4/audio.mp3?utm_source=Podcast&in_playlist=10ff939a-bbfe-4384-bfd9-a4f7004bcf80
saved as pods/tofop_5.mp3
http://omnystudio.com/d/clips/1127a421-54fd-4b47-91d5-a4f7004b4b52/e5b1c414-da02-4ff1-b8e1-a4f7004bbe3a/d9888999-e863-41e6-b5a7-a5e5001338b9/audio.mp3?utm_source=Podcast&in_playlist=10ff939a-bbfe-4384-bfd9-a4f7004bcf80
saved as pods/tofop_6.mp3
http://omnystudio.com/d/clips/1127a421-54fd-4b47-91d5-a4f7004b4b52/e5b1c414-da02-4ff1-b8e1-a4f7004bbe3a/6302ff49-441c-4033-a588-a4f70065f615/audio.mp3?utm_source=Podcast&in_playlist=10ff939a-bbfe-4384-bfd9-a4f7004bcf80
saved as pods/tofop_7.mp3
http://omnystudio.com/d/clips/1127a421-54fd-4b47-91d5-a4f7004b4b52/e5b1c414-da02-4ff1-b8e1-a4f7004bbe3a/1fffadd4-18b3-44b1-bbf3-a4f70065ebea/audio.mp3?utm_source=Podcast&in_playlist=10ff939a-bbfe-4384-bfd9-a4f7004bcf80
saved as pods/tofop_8.mp3
http://omnystudio.com/d/clips/1127a421-54fd-4b47-91d5-a4f7004b4b52/e5b1c414-da02-4ff1-b8e1-a4f7004bbe3a/501b14f7-3e67-4a3f-8dda-a4f70064a4e7/audio.mp3?utm_source=Podcast&in_playlist=10ff939a-bbfe-4384-bfd9-a4f7004bcf80
saved as pods/tofop_9.mp3
